input=/scratch2/scratchdirs/taknevsk/intel-matrices/crankseg_2/crankseg_2.mtx
median ilu0 ref time 3.819968
iter = 178 rel_err = 9.86743e-08
Total pcg time: 5.342356, Average time per iteration  0.030013
spmv_perf = 13.6827 gbps trsv_perf = 9.9524 gbps ilu0_perf = 0.0740576 gbps
spmv_time = 2.23789 s trsv_tme = 3.07775 s
median GS-DEP-COMPILER-TEST time 2.775370
median GS-TOTAL-INSPECTOR time 2.811224
GS parallelism = 14.5251
median ILU-DEP-COMPILER-TEST time 0.888702
median ILU-INSPECTOR time 0.924586
ILU parallelism = 14.5284
median ilu0 p2p time 4.596195
Total pcg time: 7.813674, Average time per iteration  0.043897
iter = 178, rel_err = 9.47416e-08
spmv_perf = 8.15859 gbps trsv_perf = 7.57148 gbps ilu0_perf = 0.0616788 gbps
spmv_time = 3.75314 s trsv_tme = 4.04558 s
parallelism = 14.5251
median ilu0 handtuned time 4.512277
Total pcg time: 7.589246, Average time per iteration  0.042636
iter = 178, rel_err = 9.47416e-08
spmv_perf = 8.6942 gbps trsv_perf = 7.55645 gbps ilu0_perf = 0.0628259 gbps
spmv_time = 3.52192 s trsv_tme = 4.05363 s
ilu0 MKL time 47.712119
ilu0 trsv MKL inspection time 0.151717
Total pcg symgs mkl time: 8.313468, Average time per iteration  0.046969
iter = 177, rel_err = 8.74518e-08
spmv_perf = 13.6806 gbps trsv_perf = 5.05624 gbps ilu0_perf = 0.00594163 gbps
spmv_time = 2.22572 s trsv_tme = 6.07766 s
parallelism = 14.5251
symgs trsv handtuned inspection time 1.135560
Total pcg symgs handtuned time: 11.551859, Average time per iteration  0.042785
iter = 270, rel_err = 8.97711e-08
spmv_perf = 8.65922 gbps trsv_perf = 7.54759 gbps
spmv_time = 5.35361 s trsv_tme = 6.15598 s
symgs trsv MKL inspection time 0.148403
Total pcg symgs mkl time: 12.979785, Average time per iteration  0.048073
iter = 270, rel_err = 8.97711e-08
spmv_perf = 13.6923 gbps trsv_perf = 4.90706 gbps
spmv_time = 3.38571 s trsv_tme = 9.55286 s
