input=/scratch2/scratchdirs/taknevsk/intel-matrices/ecology2/ecology2.mtx
median ilu0 ref time 0.025633
iter = 1791 rel_err = 9.88625e-08
Total pcg time: 32.160440, Average time per iteration  0.017957
spmv_perf = 42.2105 gbps trsv_perf = 6.42144 gbps ilu0_perf = 3.95293 gbps
spmv_time = 3.39426 s trsv_tme = 26.7619 s
median GS-DEP-COMPILER-TEST time 0.055062
median GS-TOTAL-INSPECTOR time 0.070758
GS parallelism = 500.25
median ILU-DEP-COMPILER-TEST time 0.043470
median ILU-INSPECTOR time 0.058914
ILU parallelism = 500.5
median ilu0 p2p time 0.006457
Total pcg time: 9.936013, Average time per iteration  0.005545
iter = 1792, rel_err = 9.62172e-08
spmv_perf = 42.6739 gbps trsv_perf = 37.3661 gbps ilu0_perf = 16.7129 gbps
spmv_time = 3.35928 s trsv_tme = 4.60165 s
parallelism = 500.25
median ilu0 handtuned time 0.006079
Total pcg time: 9.881510, Average time per iteration  0.005514
iter = 1792, rel_err = 9.62172e-08
spmv_perf = 42.5203 gbps trsv_perf = 37.8019 gbps ilu0_perf = 17.7543 gbps
spmv_time = 3.37142 s trsv_tme = 4.5486 s
ilu0 MKL time 0.119398
ilu0 trsv MKL inspection time 1.796702
Total pcg symgs mkl time: 38.050009, Average time per iteration  0.021233
iter = 1792, rel_err = 9.67796e-08
spmv_perf = 44.7587 gbps trsv_perf = 6.53737 gbps ilu0_perf = 0.903865 gbps
spmv_time = 3.20282 s trsv_tme = 32.8808 s
parallelism = 500.25
symgs trsv handtuned inspection time 0.101000
Total pcg symgs handtuned time: 11.947767, Average time per iteration  0.005676
iter = 2105, rel_err = 9.94067e-08
spmv_perf = 41.7742 gbps trsv_perf = 36.1028 gbps
spmv_time = 4.03069 s trsv_tme = 5.59454 s
symgs trsv MKL inspection time 0.837111
Total pcg symgs mkl time: 44.935443, Average time per iteration  0.021347
iter = 2105, rel_err = 9.94067e-08
spmv_perf = 44.0417 gbps trsv_perf = 6.51187 gbps
spmv_time = 3.82317 s trsv_tme = 38.7752 s
