Failed to open file /scratch2/scratchdirs/taknevsk/intel-matrices/apache2/apache2_b.mtx
input=/scratch2/scratchdirs/taknevsk/intel-matrices/apache2/apache2.mtx
median ilu0 ref time 0.033280
iter = 723 rel_err = 9.10464e-08
Total pcg time: 10.009158, Average time per iteration  0.013844
spmv_perf = 43.7315 gbps trsv_perf = 7.24613 gbps ilu0_perf = 2.98857 gbps
spmv_time = 1.19395 s trsv_tme = 8.33747 s
median GS-DEP-COMPILER-TEST time 0.049271
median GS-TOTAL-INSPECTOR time 0.061511
GS parallelism = 1077.07
median ILU-DEP-COMPILER-TEST time 0.037579
median ILU-INSPECTOR time 0.050864
ILU parallelism = 1078.7
median ilu0 p2p time 0.006333
Total pcg time: 3.183536, Average time per iteration  0.004403
iter = 723, rel_err = 9.10464e-08
spmv_perf = 44.1628 gbps trsv_perf = 39.8042 gbps ilu0_perf = 16.119 gbps
spmv_time = 1.18229 s trsv_tme = 1.51779 s
parallelism = 1077.07
median ilu0 handtuned time 0.006546
Total pcg time: 3.272817, Average time per iteration  0.004527
iter = 723, rel_err = 9.10464e-08
spmv_perf = 43.5789 gbps trsv_perf = 38.2541 gbps ilu0_perf = 15.5945 gbps
spmv_time = 1.19814 s trsv_tme = 1.57929 s
ilu0 MKL time 0.127666
ilu0 trsv MKL inspection time 0.533342
Total pcg symgs mkl time: 11.015531, Average time per iteration  0.015236
iter = 723, rel_err = 9.10464e-08
spmv_perf = 44.2133 gbps trsv_perf = 7.7852 gbps ilu0_perf = 0.799577 gbps
spmv_time = 1.18094 s trsv_tme = 9.35418 s
parallelism = 1077.07
symgs trsv handtuned inspection time 0.087738
Total pcg symgs handtuned time: 6.847955, Average time per iteration  0.004485
iter = 1527, rel_err = 9.97676e-08
spmv_perf = 43.4344 gbps trsv_perf = 38.6964 gbps
spmv_time = 2.53707 s trsv_tme = 3.29739 s
symgs trsv MKL inspection time 0.491605
Total pcg symgs mkl time: 23.216131, Average time per iteration  0.015204
iter = 1527, rel_err = 9.97676e-08
spmv_perf = 47.8015 gbps trsv_perf = 7.72959 gbps
spmv_time = 2.30529 s trsv_tme = 19.8985 s
