input=/scratch2/scratchdirs/taknevsk/intel-matrices/parabolic_fem/parabolic_fem.mtx
median ilu0 ref time 0.028125
iter = 678 rel_err = 9.79386e-08
Total pcg time: 10.444238, Average time per iteration  0.015404
spmv_perf = 9.69894 gbps trsv_perf = 8.70833 gbps ilu0_perf = 2.67453 gbps
spmv_time = 3.82326 s trsv_tme = 4.90692 s
median GS-DEP-COMPILER-TEST time 0.182630
median GS-TOTAL-INSPECTOR time 0.221285
GS parallelism = 75117.9
median ILU-DEP-COMPILER-TEST time 0.065390
median ILU-INSPECTOR time 0.091676
ILU parallelism = 87637.5
median ilu0 p2p time 0.043717
Total pcg time: 10.963979, Average time per iteration  0.016171
iter = 678, rel_err = 9.79138e-08
spmv_perf = 9.36492 gbps trsv_perf = 8.09154 gbps ilu0_perf = 1.77734 gbps
spmv_time = 3.95962 s trsv_tme = 5.28096 s
parallelism = 75117.9
median ilu0 handtuned time 0.039470
Total pcg time: 11.000042, Average time per iteration  0.016224
iter = 678, rel_err = 9.79138e-08
spmv_perf = 9.30275 gbps trsv_perf = 8.04115 gbps ilu0_perf = 1.96859 gbps
spmv_time = 3.98609 s trsv_tme = 5.31405 s
ilu0 MKL time 0.126651
ilu0 trsv MKL inspection time 0.037714
Total pcg symgs mkl time: 13.602576, Average time per iteration  0.020063
iter = 678, rel_err = 9.79079e-08
spmv_perf = 9.77538 gbps trsv_perf = 6.33958 gbps ilu0_perf = 0.61349 gbps
spmv_time = 3.79336 s trsv_tme = 8.09002 s
parallelism = 75117.9
symgs trsv handtuned inspection time 0.410772
Total pcg symgs handtuned time: 11.861689, Average time per iteration  0.016227
iter = 731, rel_err = 9.9942e-08
spmv_perf = 9.30523 gbps trsv_perf = 8.04268 gbps
spmv_time = 4.29608 s trsv_tme = 5.72837 s
symgs trsv MKL inspection time 0.032698
Total pcg symgs mkl time: 15.387654, Average time per iteration  0.021050
iter = 731, rel_err = 9.9942e-08
spmv_perf = 9.74796 gbps trsv_perf = 5.84572 gbps
spmv_time = 4.10096 s trsv_tme = 9.45932 s
