Failed to open file /scratch2/scratchdirs/taknevsk/intel-matrices/Emilia_923/Emilia_923_b.mtx
input=/scratch2/scratchdirs/taknevsk/intel-matrices/Emilia_923/Emilia_923.mtx
median ilu0 ref time 1.729702
iter = 411 rel_err = 9.55668e-08
Total pcg time: 40.790529, Average time per iteration  0.099247
spmv_perf = 12.1042 gbps trsv_perf = 10.0713 gbps ilu0_perf = 0.475264 gbps
spmv_time = 17.3771 s trsv_tme = 21.4368 s
median GS-DEP-COMPILER-TEST time 3.381712
median GS-TOTAL-INSPECTOR time 3.674762
GS parallelism = 176.137
median ILU-DEP-COMPILER-TEST time 1.535681
median ILU-INSPECTOR time 1.830011
ILU parallelism = 176.171
median ilu0 p2p time 2.551451
Total pcg time: 73.306902, Average time per iteration  0.178362
iter = 411, rel_err = 9.66523e-08
spmv_perf = 5.77521 gbps trsv_perf = 6.15895 gbps ilu0_perf = 0.324321 gbps
spmv_time = 36.4206 s trsv_tme = 35.0541 s
parallelism = 176.137
median ilu0 handtuned time 2.446754
Total pcg time: 72.634731, Average time per iteration  0.176727
iter = 411, rel_err = 9.66523e-08
spmv_perf = 5.78378 gbps trsv_perf = 6.26929 gbps ilu0_perf = 0.338199 gbps
spmv_time = 36.3666 s trsv_tme = 34.4371 s
ilu0 MKL time 5.095624
ilu0 trsv MKL inspection time 0.458931
Total pcg symgs mkl time: 64.110142, Average time per iteration  0.156366
iter = 410, rel_err = 9.81056e-08
spmv_perf = 12.0896 gbps trsv_perf = 4.9999 gbps ilu0_perf = 0.162392 gbps
spmv_time = 17.3558 s trsv_tme = 44.8919 s
parallelism = 176.137
symgs trsv handtuned inspection time 3.780148
Total pcg symgs handtuned time: 550.243804, Average time per iteration  0.176927
iter = 3110, rel_err = 9.91944e-08
spmv_perf = 5.78465 gbps trsv_perf = 6.26638 gbps
spmv_time = 274.562 s trsv_tme = 260.704 s
symgs trsv MKL inspection time 0.461144
Total pcg symgs mkl time: 496.033991, Average time per iteration  0.159496
iter = 3110, rel_err = 9.91944e-08
spmv_perf = 12.1097 gbps trsv_perf = 4.8674 gbps
spmv_time = 131.155 s trsv_tme = 349.791 s
