input=/scratch2/scratchdirs/taknevsk/intel-matrices/thermal2/thermal2.mtx
median ilu0 ref time 0.178991
iter = 1656 rel_err = 9.9888e-08
Total pcg time: 66.982826, Average time per iteration  0.040449
spmv_perf = 33.5933 gbps trsv_perf = 4.1882 gbps ilu0_perf = 0.988125 gbps
spmv_time = 6.2902 s trsv_tme = 58.1919 s
median GS-DEP-COMPILER-TEST time 0.128439
median GS-TOTAL-INSPECTOR time 0.188422
GS parallelism = 991.158
median ILU-DEP-COMPILER-TEST time 0.097560
median ILU-INSPECTOR time 0.145614
ILU parallelism = 991.959
median ilu0 p2p time 0.039081
Total pcg time: 16.902326, Average time per iteration  0.010207
iter = 1656, rel_err = 9.99409e-08
spmv_perf = 34.8841 gbps trsv_perf = 28.4694 gbps ilu0_perf = 4.64239 gbps
spmv_time = 6.05744 s trsv_tme = 8.56074 s
parallelism = 991.158
median ilu0 handtuned time 0.036537
Total pcg time: 17.071754, Average time per iteration  0.010309
iter = 1656, rel_err = 9.99409e-08
spmv_perf = 35.2604 gbps trsv_perf = 27.6245 gbps ilu0_perf = 4.96564 gbps
spmv_time = 5.9928 s trsv_tme = 8.82257 s
ilu0 MKL time 0.318071
ilu0 trsv MKL inspection time 1.515138
Total pcg symgs mkl time: 55.155908, Average time per iteration  0.033267
iter = 1658, rel_err = 9.6937e-08
spmv_perf = 34.5716 gbps trsv_perf = 6.281 gbps ilu0_perf = 0.570409 gbps
spmv_time = 6.11957 s trsv_tme = 46.6295 s
parallelism = 991.158
symgs trsv handtuned inspection time 0.195918
Total pcg symgs handtuned time: 18.532668, Average time per iteration  0.010177
iter = 1821, rel_err = 9.94109e-08
spmv_perf = 36.0626 gbps trsv_perf = 27.8601 gbps
spmv_time = 6.44296 s trsv_tme = 9.61958 s
symgs trsv MKL inspection time 1.113222
Total pcg symgs mkl time: 60.613561, Average time per iteration  0.033286
iter = 1821, rel_err = 9.94109e-08
spmv_perf = 34.727 gbps trsv_perf = 6.27612 gbps
spmv_time = 6.69075 s trsv_tme = 51.2535 s
