Failed to open file /scratch2/scratchdirs/taknevsk/intel-matrices/G3_circuit/G3_circuit_b.mtx
input=/scratch2/scratchdirs/taknevsk/intel-matrices/G3_circuit/G3_circuit.mtx
median ilu0 ref time 0.044696
iter = 755 rel_err = 9.71374e-08
Total pcg time: 23.822687, Average time per iteration  0.031553
spmv_perf = 28.4077 gbps trsv_perf = 5.95677 gbps ilu0_perf = 3.42381 gbps
spmv_time = 3.29036 s trsv_tme = 18.8861 s
median GS-DEP-COMPILER-TEST time 0.093678
median GS-TOTAL-INSPECTOR time 0.135966
GS parallelism = 611.21
median ILU-DEP-COMPILER-TEST time 0.072945
median ILU-INSPECTOR time 0.114557
ILU parallelism = 611.445
median ilu0 p2p time 0.004695
Total pcg time: 201.984613, Average time per iteration  0.010099
iter = 20001, rel_err = -nan
spmv_perf = 36.2837 gbps trsv_perf = 32.7095 gbps ilu0_perf = 35.3369 gbps
spmv_time = 68.1582 s trsv_tme = 91.1138 s
parallelism = 611.21
median ilu0 handtuned time 0.011389
Total pcg time: 7.635547, Average time per iteration  0.010113
iter = 755, rel_err = 9.71374e-08
spmv_perf = 36.1918 gbps trsv_perf = 32.4253 gbps ilu0_perf = 14.5663 gbps
spmv_time = 2.58267 s trsv_tme = 3.46953 s
ilu0 MKL time 0.165752
ilu0 trsv MKL inspection time 1.633108
Total pcg symgs mkl time: 28.448434, Average time per iteration  0.037680
iter = 755, rel_err = 9.71374e-08
spmv_perf = 29.9741 gbps trsv_perf = 5.95725 gbps ilu0_perf = 1.00089 gbps
spmv_time = 3.11841 s trsv_tme = 23.7071 s
parallelism = 611.21
symgs trsv handtuned inspection time 0.186029
Total pcg symgs handtuned time: 13.216105, Average time per iteration  0.010112
iter = 1307, rel_err = 9.96192e-08
spmv_perf = 36.1721 gbps trsv_perf = 32.3941 gbps
spmv_time = 4.47086 s trsv_tme = 6.01197 s
symgs trsv MKL inspection time 1.508766
Total pcg symgs mkl time: 49.042085, Average time per iteration  0.037523
iter = 1307, rel_err = 9.96192e-08
spmv_perf = 30.015 gbps trsv_perf = 5.98843 gbps
spmv_time = 5.38799 s trsv_tme = 40.8263 s
