Failed to open file /scratch2/scratchdirs/taknevsk/intel-matrices/Flan_1565/Flan_1565_b.mtx
input=/scratch2/scratchdirs/taknevsk/intel-matrices/Flan_1565/Flan_1565.mtx
median ilu0 ref time 6.320761
iter = 2817 rel_err = 9.27439e-08
Total pcg time: 698.487915, Average time per iteration  0.247955
spmv_perf = 13.9686 gbps trsv_perf = 10.7841 gbps ilu0_perf = 0.371762 gbps
spmv_time = 290.537 s trsv_tme = 382.738 s
median GS-DEP-COMPILER-TEST time 11.111960
median GS-TOTAL-INSPECTOR time 11.907932
GS parallelism = 200.46
median ILU-DEP-COMPILER-TEST time 4.762582
median ILU-INSPECTOR time 5.527504
ILU parallelism = 200.486
median ilu0 p2p time 7.956810
Total pcg time: 1136.371006, Average time per iteration  0.403254
iter = 2818, rel_err = 9.58295e-08
spmv_perf = 7.81815 gbps trsv_perf = 6.96981 gbps ilu0_perf = 0.296682 gbps
spmv_time = 519.284 s trsv_tme = 592.405 s
parallelism = 200.46
median ilu0 handtuned time 7.958304
Total pcg time: 1133.281681, Average time per iteration  0.402158
iter = 2818, rel_err = 9.58295e-08
spmv_perf = 7.82781 gbps trsv_perf = 6.99369 gbps ilu0_perf = 0.296626 gbps
spmv_time = 518.643 s trsv_tme = 590.382 s
ilu0 MKL time 31.348971
ilu0 trsv MKL inspection time 1.242454
Total pcg symgs mkl time: 1145.959141, Average time per iteration  0.406801
iter = 2817, rel_err = 9.96602e-08
spmv_perf = 13.9365 gbps trsv_perf = 5.09954 gbps ilu0_perf = 0.075302 gbps
spmv_time = 291.205 s trsv_tme = 830.129 s
parallelism = 200.46
symgs trsv handtuned inspection time 10.194038
Total pcg symgs handtuned time: 1837.407324, Average time per iteration  0.597142
iter = 3077, rel_err = 9.64546e-08
spmv_perf = 5.12359 gbps trsv_perf = 4.81667 gbps
spmv_time = 865.182 s trsv_tme = 936.007 s
symgs trsv MKL inspection time 1.577779
Total pcg symgs mkl time: 1684.649134, Average time per iteration  0.547497
iter = 3077, rel_err = 9.64546e-08
spmv_perf = 14.0746 gbps trsv_perf = 3.46315 gbps
spmv_time = 314.952 s trsv_tme = 1335.2 s
