input=/scratch2/scratchdirs/taknevsk/intel-matrices/Geo_1438/Geo_1438.mtx
median ilu0 ref time 3.003425
iter = 443 rel_err = 9.55816e-08
Total pcg time: 48.436256, Average time per iteration  0.109337
spmv_perf = 39.7153 gbps trsv_perf = 9.3179 gbps ilu0_perf = 0.420774 gbps
spmv_time = 8.79429 s trsv_tme = 38.4929 s
median GS-DEP-COMPILER-TEST time 1.660199
median GS-TOTAL-INSPECTOR time 1.929609
GS parallelism = 246.945
median ILU-DEP-COMPILER-TEST time 0.803692
median ILU-INSPECTOR time 1.076689
ILU parallelism = 246.987
median ilu0 p2p time 1.052997
Total pcg time: 28.790874, Average time per iteration  0.064991
iter = 443, rel_err = 9.56726e-08
spmv_perf = 27.22 gbps trsv_perf = 24.1912 gbps ilu0_perf = 1.21049 gbps
spmv_time = 12.8313 s trsv_tme = 14.8266 s
parallelism = 246.945
median ilu0 handtuned time 1.052283
Total pcg time: 28.997221, Average time per iteration  0.065456
iter = 443, rel_err = 9.57799e-08
spmv_perf = 27.2669 gbps trsv_perf = 23.8649 gbps ilu0_perf = 1.21131 gbps
spmv_time = 12.8092 s trsv_tme = 15.0293 s
ilu0 MKL time 6.478404
ilu0 trsv MKL inspection time 7.532856
Total pcg symgs mkl time: 68.139468, Average time per iteration  0.153814
iter = 443, rel_err = 9.56447e-08
spmv_perf = 39.7782 gbps trsv_perf = 6.41454 gbps ilu0_perf = 0.196752 gbps
spmv_time = 8.78038 s trsv_tme = 58.2991 s
parallelism = 246.945
symgs trsv handtuned inspection time 1.852484
Total pcg symgs handtuned time: 34.643262, Average time per iteration  0.065488
iter = 529, rel_err = 9.72054e-08
spmv_perf = 27.2571 gbps trsv_perf = 23.8386 gbps
spmv_time = 15.2958 s trsv_tme = 17.9668 s
symgs trsv MKL inspection time 7.477577
Total pcg symgs mkl time: 81.385565, Average time per iteration  0.153848
iter = 529, rel_err = 9.72054e-08
spmv_perf = 39.7023 gbps trsv_perf = 6.41565 gbps
spmv_time = 10.5011 s trsv_tme = 69.6048 s
